An ADaM-flavored clinical trial toy dataset — gt_adsl • gt
…
BLBMI
Body Mass Index (BMI) of a subject at baseline in kg/m2.

EVNTFL
Event Flag. Indicates whether the subject experienced a
specific event during the course of the study or not. Can be either Y,
if the subject had the event, or `N`

    Examples

Here is the gt_adsl.

gt_adsl
#> # A tibble: 182 x 14
#>    STUDYID STUDYIDN USUBJID TRTA  TRTAN ITTFL RANDFL SCRFR~1   AGE AAGEGR1 SEX  
#>    <chr>   <chr>    <chr>   <fct> <dbl> <chr> <chr>  <chr>   <int> <fct>   <fct>
#>  1 GT01    4001     GT1000  <NA>      3 N     N      "WITHD~    37 <40     Male 
#>  2 GT01    4001     GT1001  Plac~     1 Y     Y      ""         41 >=40    Male 
#>  3 GT01    4001     GT1002  Plac~     1 Y     Y      ""         39 <40     Fema~
#>  4 GT01    4001     GT1003  Plac~     1 Y     Y      ""         38 <40     Male 
#>  5 GT01    4001     GT1004  Plac~     1 Y     Y      ""         45 >=40    Male 
#>  6 GT01    4001     GT1005  Plac~     1 Y     Y      ""         35 <40     Fema~
#>  7 GT01    4001     GT1006  Plac~     1 Y     Y      ""         42 >=40    Fema~
#>  8 GT01    4001     GT1007  Plac~     1 Y     Y      ""         35 <40     Male 
#>  9 GT01    4001     GT1008  Plac~     1 Y     Y      ""         42 >=40    Male 
#> 10 GT01    4001     GT1009  Plac~     1 Y     Y      ""         38 <40     Fema~
#> # ... with 172 more rows, 3 more variables: ETHNIC <fct>, BLBMI <dbl>,
#> #   EVNTFL <chr>, and abbreviated variable name 1: SCRFREAS
…
