An Example: gtcars • gt
…
      Setting gt Table Options

  Changelog

      An Example: gtcars

      Source: vignettes/example-gtcars.Rmd
      example-gtcars.Rmd

Let’s make a display table using the gtcars. We all know mtcars… what is gtcars? It’s basically a modernised mtcars for the gt age. Welcome to the limit.

# This is `gtcars`
gtcars
#> # A tibble: 47 x 15
#>    mfr   model  year trim  bdy_style    hp hp_rpm   trq trq_rpm mpg_c mpg_h
#>    <chr> <chr> <int> <chr> <chr>     <int>  <int> <int>   <int> <int> <int>
#>  1 Ford  GT     2017 Base… coupe       647   6250   550    5900    11    18
#>  2 Ferr… 458 …  2015 Base… coupe       597   9000   398    6000    13    17
#>  3 Ferr… 458 …  2015 Base  converti…   562   9000   398    6000    13    17
#>  4 Ferr… 458 …  2014 Base… coupe       562   9000   398    6000    13    17
#>  5 Ferr… 488 …  2016 Base… coupe       661   8000   561    3000    15    22
#>  6 Ferr… Cali…  2015 Base… converti…   553   7500   557    4750    16    23
#>  7 Ferr… GTC4…  2017 Base… coupe       680   8250   514    5750    12    17
#>  8 Ferr… FF     2015 Base… coupe       652   8000   504    6000    11    16
#>  9 Ferr… F12B…  2015 Base… coupe       731   8250   509    6000    11    16
#> 10 Ferr… LaFe…  2015 Base… coupe       949   9000   664    6750    12    16
#> # ... with 37 more rows, and 4 more variables: drivetrain <chr>,
#> #   trsmn <chr>, ctry_origin <chr>, msrp <int>
…
